@startuml
autonumber
actor "Administrator" as ADM
participant "CreateCMCenterUI" as UI
participant "CreateCMCenterController" as CTRL
participant "Company" as COMP
participant "cmcStore: CMCenterStore" as STORE
participant "cmc: CMCenter" as CMC
participant "cStore: CoordinatorStore" as CC_STORE
participant "cMapper: CoordinatorMapper" as CC_MAPPER

activate ADM
ADM -> UI : starts new vaccination center facility
activate UI

UI --> ADM : request data (name, address, phone, email, fax, website, openingHours, closingHours, slot, maxNumberVaccines)
deactivate UI

ADM -> UI : types requested data
activate UI
UI -> CTRL : createCMCenter(id, name, address, phone, email, fax, website, openingHours, closingHours, slot, maxNumberVaccines)
activate CTRL
CTRL -> COMP : cmcStore = getCMCenterStore()
activate COMP
deactivate COMP

CTRL -> STORE : cmc = createCMCenter(id, name, address, phone, email, fax, website, openingHours, closingHours, slot, maxNumberVaccines)
activate STORE

STORE --> CMC**: create(id, name, address, phone, email, fax, website, openingHours, closingHours, slot, maxNumberVaccines)
deactivate STORE

CTRL -> STORE: validateCMCenter(cmc)
activate STORE
deactivate STORE
deactivate CTRL

UI -> CTRL: lCCDto = getCoordinators()
activate CTRL
CTRL -> COMP: cStore = getCoordinatorStore()
activate COMP
deactivate COMP

CTRL -> CC_STORE: lCC = getCoordinators()
activate CC_STORE
deactivate CC_STORE

CTRL -> CC_MAPPER: lCCDto = toDto(lCC)
activate CC_MAPPER
deactivate CC_MAPPER
deactivate CTRL

deactivate CTRL
UI --> ADM: shows coordinators to be selected
deactivate UI

ADM -> UI: selects one coordinator
activate UI

UI->CTRL: addCoordinator(cId)
activate CTRL

CTRL->CC_STORE: c = getCoordinator(cId)
activate CC_STORE
deactivate CC_STORE

CTRL -> CMC: b = addCoordinator(c)
activate CMC
deactivate CMC

CTRL-->UI: ok

deactivate CTRL
UI --> ADM: added with success

UI --> ADM : shows the data and requests a confirmation
deactivate UI

ADM -> UI : confirms the data
activate UI
UI -> CTRL : saveCMCenter()
activate CTRL
CTRL ->STORE :saveCMCenter(cmc)
activate STORE
STORE -> STORE: validateCMCenter(cmc)
activate STORE
deactivate STORE
STORE -> STORE: addCMCenter(cmc)
activate STORE
deactivate STORE
deactivate STORE
deactivate CTRL
UI --> ADM : informs operation success
deactivate UI

deactivate ADM
@enduml

PlantUML version 1.2020.20(Sat Nov 21 10:02:45 WET 2020)
(GPL source distribution)
Java Runtime: OpenJDK Runtime Environment
JVM: OpenJDK 64-Bit Server VM
Default Encoding: UTF-8
Language: en
Country: PT
--></g></svg>