<?xml version="1.0" encoding="UTF-8" standalone="no"?><svg xmlns="http://www.w3.org/2000/svg" xmlns:xlink="http://www.w3.org/1999/xlink" contentStyleType="text/css" height="264px" preserveAspectRatio="none" style="width:999px;height:264px;background:#FFFFFF;" version="1.1" viewBox="0 0 999 264" width="999px" zoomAndPan="magnify"><defs/><g><!--MD5=[02e4b9b7573f1156f41e60aa5b4e25a4]
class Company--><g id="elem_Company"><rect codeLine="6" fill="#F1F1F1" height="216.0938" id="Company" rx="2.5" ry="2.5" style="stroke:#181818;stroke-width:0.5;" width="148" x="7" y="33"/><ellipse cx="47.2" cy="49" fill="#ADD1B2" rx="11" ry="11" style="stroke:#181818;stroke-width:1.0;"/><path d="M49.2,45.5 Q49.4031,45 49.6375,44.75 Q49.8719,44.5 50.1375,44.5 Q50.6063,44.5 50.9031,44.7813 Q51.2,45.0625 51.2,45.7188 L51.2,47.2813 Q51.2,47.9375 50.9188,48.2188 Q50.6375,48.5 50.2,48.5 Q49.8094,48.5 49.5594,48.3281 Q49.3094,48.1563 49.2,47.7031 Q49.1531,47.3906 48.9813,47.2188 Q48.6688,46.8906 48.1063,46.7031 Q47.5438,46.5 46.9813,46.5 Q46.2781,46.5 45.6844,46.7813 Q45.1063,47.0625 44.6531,47.6875 Q44.2,48.3125 44.2,49.1719 L44.2,50.0938 Q44.2,51.125 45.0438,51.8125 Q45.8875,52.5 47.3875,52.5 Q48.2781,52.5 48.9031,52.2969 Q49.2625,52.1875 49.6688,51.8281 Q49.9344,51.625 50.075,51.5625 Q50.2156,51.5 50.3875,51.5 Q50.7156,51.5 50.95,51.7656 Q51.2,52.0156 51.2,52.375 Q51.2,52.7188 50.8563,53.125 Q50.3563,53.7188 49.5594,54.0469 Q48.5125,54.5 47.2313,54.5 Q45.7313,54.5 44.5281,53.9063 Q43.5594,53.4375 42.8719,52.4219 Q42.2,51.4063 42.2,50.2031 L42.2,49.1094 Q42.2,47.8594 42.7938,46.7656 Q43.4031,45.6719 44.45,45.0938 Q45.5125,44.5 46.7,44.5 Q47.4188,44.5 48.0438,44.75 Q48.6688,45 49.2,45.5 Z " fill="#000000"/><text fill="#000000" font-family="sans-serif" font-size="14" lengthAdjust="spacing" textLength="60" x="66.8" y="54.7285">Company</text><line style="stroke:#181818;stroke-width:0.5;" x1="8" x2="154" y1="65" y2="65"/><text fill="#000000" font-family="sans-serif" font-size="14" lengthAdjust="spacing" textLength="40" x="13" y="83.5332">-name</text><text fill="#000000" font-family="sans-serif" font-size="14" lengthAdjust="spacing" textLength="56" x="13" y="101.1426">-address</text><text fill="#000000" font-family="sans-serif" font-size="14" lengthAdjust="spacing" textLength="45" x="13" y="118.752">-phone</text><text fill="#000000" font-family="sans-serif" font-size="14" lengthAdjust="spacing" textLength="38" x="13" y="136.3613">-email</text><text fill="#000000" font-family="sans-serif" font-size="14" lengthAdjust="spacing" textLength="23" x="13" y="153.9707">-fax</text><text fill="#000000" font-family="sans-serif" font-size="14" lengthAdjust="spacing" textLength="52" x="13" y="171.5801">-website</text><text fill="#000000" font-family="sans-serif" font-size="14" lengthAdjust="spacing" textLength="93" x="13" y="189.1895">-openingHours</text><text fill="#000000" font-family="sans-serif" font-size="14" lengthAdjust="spacing" textLength="86" x="13" y="206.7988">-closingHours</text><text fill="#000000" font-family="sans-serif" font-size="14" lengthAdjust="spacing" textLength="27" x="13" y="224.4082">-slot</text><text fill="#000000" font-family="sans-serif" font-size="14" lengthAdjust="spacing" textLength="136" x="13" y="242.0176">-maxNumberVaccines</text></g><!--MD5=[cc87a3a4d1598c3a6f80a082f489c1ed]
class CommunityMassVaccinationCenters--><g id="elem_CommunityMassVaccinationCenters"><rect codeLine="19" fill="#F1F1F1" height="57.6094" id="CommunityMassVaccinationCenters" rx="2.5" ry="2.5" style="stroke:#181818;stroke-width:0.5;" width="258" x="532" y="118"/><ellipse cx="547" cy="134" fill="#ADD1B2" rx="11" ry="11" style="stroke:#181818;stroke-width:1.0;"/><path d="M549,130.5 Q549.2031,130 549.4375,129.75 Q549.6719,129.5 549.9375,129.5 Q550.4063,129.5 550.7031,129.7813 Q551,130.0625 551,130.7188 L551,132.2813 Q551,132.9375 550.7188,133.2188 Q550.4375,133.5 550,133.5 Q549.6094,133.5 549.3594,133.3281 Q549.1094,133.1563 549,132.7031 Q548.9531,132.3906 548.7813,132.2188 Q548.4688,131.8906 547.9063,131.7031 Q547.3438,131.5 546.7813,131.5 Q546.0781,131.5 545.4844,131.7813 Q544.9063,132.0625 544.4531,132.6875 Q544,133.3125 544,134.1719 L544,135.0938 Q544,136.125 544.8438,136.8125 Q545.6875,137.5 547.1875,137.5 Q548.0781,137.5 548.7031,137.2969 Q549.0625,137.1875 549.4688,136.8281 Q549.7344,136.625 549.875,136.5625 Q550.0156,136.5 550.1875,136.5 Q550.5156,136.5 550.75,136.7656 Q551,137.0156 551,137.375 Q551,137.7188 550.6563,138.125 Q550.1563,138.7188 549.3594,139.0469 Q548.3125,139.5 547.0313,139.5 Q545.5313,139.5 544.3281,138.9063 Q543.3594,138.4375 542.6719,137.4219 Q542,136.4063 542,135.2031 L542,134.1094 Q542,132.8594 542.5938,131.7656 Q543.2031,130.6719 544.25,130.0938 Q545.3125,129.5 546.5,129.5 Q547.2188,129.5 547.8438,129.75 Q548.4688,130 549,130.5 Z " fill="#000000"/><text fill="#000000" font-family="sans-serif" font-size="14" lengthAdjust="spacing" textLength="226" x="561" y="139.7285">CommunityMassVaccinationCenters</text><line style="stroke:#181818;stroke-width:0.5;" x1="533" x2="789" y1="150" y2="150"/><text fill="#000000" font-family="sans-serif" font-size="14" lengthAdjust="spacing" textLength="16" x="538" y="168.5332">-id</text></g><!--MD5=[3e3529c813c9c1f6710106969f931ec5]
class HealthCareCenters--><g id="elem_HealthCareCenters"><rect codeLine="23" fill="#F1F1F1" height="57.6094" id="HealthCareCenters" rx="2.5" ry="2.5" style="stroke:#181818;stroke-width:0.5;" width="153" x="349" y="200"/><ellipse cx="364" cy="216" fill="#ADD1B2" rx="11" ry="11" style="stroke:#181818;stroke-width:1.0;"/><path d="M366,212.5 Q366.2031,212 366.4375,211.75 Q366.6719,211.5 366.9375,211.5 Q367.4063,211.5 367.7031,211.7813 Q368,212.0625 368,212.7188 L368,214.2813 Q368,214.9375 367.7188,215.2188 Q367.4375,215.5 367,215.5 Q366.6094,215.5 366.3594,215.3281 Q366.1094,215.1563 366,214.7031 Q365.9531,214.3906 365.7813,214.2188 Q365.4688,213.8906 364.9063,213.7031 Q364.3438,213.5 363.7813,213.5 Q363.0781,213.5 362.4844,213.7813 Q361.9063,214.0625 361.4531,214.6875 Q361,215.3125 361,216.1719 L361,217.0938 Q361,218.125 361.8438,218.8125 Q362.6875,219.5 364.1875,219.5 Q365.0781,219.5 365.7031,219.2969 Q366.0625,219.1875 366.4688,218.8281 Q366.7344,218.625 366.875,218.5625 Q367.0156,218.5 367.1875,218.5 Q367.5156,218.5 367.75,218.7656 Q368,219.0156 368,219.375 Q368,219.7188 367.6563,220.125 Q367.1563,220.7188 366.3594,221.0469 Q365.3125,221.5 364.0313,221.5 Q362.5313,221.5 361.3281,220.9063 Q360.3594,220.4375 359.6719,219.4219 Q359,218.4063 359,217.2031 L359,216.1094 Q359,214.8594 359.5938,213.7656 Q360.2031,212.6719 361.25,212.0938 Q362.3125,211.5 363.5,211.5 Q364.2188,211.5 364.8438,211.75 Q365.4688,212 366,212.5 Z " fill="#000000"/><text fill="#000000" font-family="sans-serif" font-size="14" lengthAdjust="spacing" textLength="121" x="378" y="221.7285">HealthCareCenters</text><line style="stroke:#181818;stroke-width:0.5;" x1="350" x2="501" y1="232" y2="232"/><text fill="#000000" font-family="sans-serif" font-size="14" lengthAdjust="spacing" textLength="16" x="355" y="250.5332">-id</text></g><!--MD5=[5d2bdee92db0d01b75732190da037553]
class Coordinator--><g id="elem_Coordinator"><rect codeLine="27" fill="#F1F1F1" height="57.6094" id="Coordinator" rx="2.5" ry="2.5" style="stroke:#181818;stroke-width:0.5;" width="107" x="607.5" y="7"/><ellipse cx="622.5" cy="23" fill="#ADD1B2" rx="11" ry="11" style="stroke:#181818;stroke-width:1.0;"/><path d="M624.5,19.5 Q624.7031,19 624.9375,18.75 Q625.1719,18.5 625.4375,18.5 Q625.9063,18.5 626.2031,18.7813 Q626.5,19.0625 626.5,19.7188 L626.5,21.2813 Q626.5,21.9375 626.2188,22.2188 Q625.9375,22.5 625.5,22.5 Q625.1094,22.5 624.8594,22.3281 Q624.6094,22.1563 624.5,21.7031 Q624.4531,21.3906 624.2813,21.2188 Q623.9688,20.8906 623.4063,20.7031 Q622.8438,20.5 622.2813,20.5 Q621.5781,20.5 620.9844,20.7813 Q620.4063,21.0625 619.9531,21.6875 Q619.5,22.3125 619.5,23.1719 L619.5,24.0938 Q619.5,25.125 620.3438,25.8125 Q621.1875,26.5 622.6875,26.5 Q623.5781,26.5 624.2031,26.2969 Q624.5625,26.1875 624.9688,25.8281 Q625.2344,25.625 625.375,25.5625 Q625.5156,25.5 625.6875,25.5 Q626.0156,25.5 626.25,25.7656 Q626.5,26.0156 626.5,26.375 Q626.5,26.7188 626.1563,27.125 Q625.6563,27.7188 624.8594,28.0469 Q623.8125,28.5 622.5313,28.5 Q621.0313,28.5 619.8281,27.9063 Q618.8594,27.4375 618.1719,26.4219 Q617.5,25.4063 617.5,24.2031 L617.5,23.1094 Q617.5,21.8594 618.0938,20.7656 Q618.7031,19.6719 619.75,19.0938 Q620.8125,18.5 622,18.5 Q622.7188,18.5 623.3438,18.75 Q623.9688,19 624.5,19.5 Z " fill="#000000"/><text fill="#000000" font-family="sans-serif" font-size="14" lengthAdjust="spacing" textLength="75" x="636.5" y="28.7285">Coordinator</text><line style="stroke:#181818;stroke-width:0.5;" x1="608.5" x2="713.5" y1="39" y2="39"/><text fill="#000000" font-family="sans-serif" font-size="14" lengthAdjust="spacing" textLength="16" x="613.5" y="57.5332">-Id</text></g><!--MD5=[c4ba47d6de71268c83c672e2a3577f67]
class VacinationCenter--><g id="elem_VacinationCenter"><rect fill="#F1F1F1" height="40" id="VacinationCenter" rx="2.5" ry="2.5" style="stroke:#181818;stroke-width:0.5;" width="141" x="851" y="189"/><ellipse cx="866" cy="205" fill="#ADD1B2" rx="11" ry="11" style="stroke:#181818;stroke-width:1.0;"/><path d="M868,201.5 Q868.2031,201 868.4375,200.75 Q868.6719,200.5 868.9375,200.5 Q869.4063,200.5 869.7031,200.7813 Q870,201.0625 870,201.7188 L870,203.2813 Q870,203.9375 869.7188,204.2188 Q869.4375,204.5 869,204.5 Q868.6094,204.5 868.3594,204.3281 Q868.1094,204.1563 868,203.7031 Q867.9531,203.3906 867.7813,203.2188 Q867.4688,202.8906 866.9063,202.7031 Q866.3438,202.5 865.7813,202.5 Q865.0781,202.5 864.4844,202.7813 Q863.9063,203.0625 863.4531,203.6875 Q863,204.3125 863,205.1719 L863,206.0938 Q863,207.125 863.8438,207.8125 Q864.6875,208.5 866.1875,208.5 Q867.0781,208.5 867.7031,208.2969 Q868.0625,208.1875 868.4688,207.8281 Q868.7344,207.625 868.875,207.5625 Q869.0156,207.5 869.1875,207.5 Q869.5156,207.5 869.75,207.7656 Q870,208.0156 870,208.375 Q870,208.7188 869.6563,209.125 Q869.1563,209.7188 868.3594,210.0469 Q867.3125,210.5 866.0313,210.5 Q864.5313,210.5 863.3281,209.9063 Q862.3594,209.4375 861.6719,208.4219 Q861,207.4063 861,206.2031 L861,205.1094 Q861,203.8594 861.5938,202.7656 Q862.2031,201.6719 863.25,201.0938 Q864.3125,200.5 865.5,200.5 Q866.2188,200.5 866.8438,200.75 Q867.4688,201 868,201.5 Z " fill="#000000"/><text fill="#000000" font-family="sans-serif" font-size="14" lengthAdjust="spacing" textLength="109" x="880" y="210.7285">VacinationCenter</text><line style="stroke:#181818;stroke-width:0.5;" x1="852" x2="991" y1="221" y2="221"/></g><!--MD5=[00601ea09ac6ff6704f2dc4a0774a2cc]
link Company to CommunityMassVaccinationCenters--><g id="link_Company_CommunityMassVaccinationCenters"><path codeLine="31" d="M155.2,141.76 C249.83,142.74 416.16,144.47 531.93,145.67 " fill="none" id="Company-CommunityMassVaccinationCenters" style="stroke:#181818;stroke-width:1.0;"/><polygon fill="#000000" points="276.9997,134.2277,267.9856,131.195,267.9246,137.0726,276.9997,134.2277" style="stroke:#000000;stroke-width:1.0;"/><text fill="#000000" font-family="sans-serif" font-size="13" lengthAdjust="spacing" textLength="21" x="281" y="139.4951">has</text><text fill="#000000" font-family="sans-serif" font-size="13" lengthAdjust="spacing" textLength="7" x="163.2128" y="156.1718">1</text><text fill="#000000" font-family="sans-serif" font-size="13" lengthAdjust="spacing" textLength="5" x="518.9125" y="159.5942">*</text></g><!--MD5=[8ae7504693cd533f31ce4573464b5426]
link Company to HealthCareCenters--><g id="link_Company_HealthCareCenters"><path codeLine="32" d="M155.25,174.62 C165.13,178.47 175.23,182.05 185,185 C238.73,201.19 301.14,212.42 348.78,219.48 " fill="none" id="Company-HealthCareCenters" style="stroke:#181818;stroke-width:1.0;"/><polygon fill="#000000" points="194.8709,177.3048,186.723,172.3993,185.3958,178.1254,194.8709,177.3048" style="stroke:#000000;stroke-width:1.0;"/><text fill="#000000" font-family="sans-serif" font-size="13" lengthAdjust="spacing" textLength="21" x="199" y="181.4951">has</text><text fill="#000000" font-family="sans-serif" font-size="13" lengthAdjust="spacing" textLength="7" x="162.9035" y="192.2248">1</text><text fill="#000000" font-family="sans-serif" font-size="13" lengthAdjust="spacing" textLength="22" x="318.9674" y="232.8728">0..1</text></g><!--MD5=[149fcb026200e4d89e74c6fe68fed3a3]
link Company to Coordinator--><g id="link_Company_Coordinator"><path codeLine="33" d="M155.03,123.41 C165.08,121.16 175.28,118.96 185,117 C337.74,86.21 519.65,57.35 607.45,43.91 " fill="none" id="Company-Coordinator" style="stroke:#181818;stroke-width:1.0;"/><polygon fill="#000000" points="260.9245,83.3104,251.5073,81.9813,252.5246,87.7704,260.9245,83.3104" style="stroke:#000000;stroke-width:1.0;"/><text fill="#000000" font-family="sans-serif" font-size="13" lengthAdjust="spacing" textLength="53" x="265" y="89.4951">conducts</text><text fill="#000000" font-family="sans-serif" font-size="13" lengthAdjust="spacing" textLength="7" x="163.0253" y="135.9294">1</text><text fill="#000000" font-family="sans-serif" font-size="13" lengthAdjust="spacing" textLength="5" x="594.568" y="59.6946">*</text></g><!--MD5=[a93322d817d09e5371aa2a4f05109344]
link HealthCareCenters to VacinationCenter--><g id="link_HealthCareCenters_VacinationCenter"><path codeLine="35" d="M502.07,225.94 C590.48,222.36 736.73,216.44 830.82,212.63 " fill="none" id="HealthCareCenters-to-VacinationCenter" style="stroke:#181818;stroke-width:1.0;"/><polygon fill="none" points="830.66,205.63,850.93,211.82,831.23,219.62,830.66,205.63" style="stroke:#181818;stroke-width:1.0;"/></g><!--MD5=[d647518350c81ed8c646cfce49387a8d]
link CommunityMassVaccinationCenters to VacinationCenter--><g id="link_CommunityMassVaccinationCenters_VacinationCenter"><path codeLine="36" d="M782.92,176 C799.19,179.9 815.63,183.85 831.21,187.58 " fill="none" id="CommunityMassVaccinationCenters-to-VacinationCenter" style="stroke:#181818;stroke-width:1.0;"/><polygon fill="none" points="832.94,180.8,850.75,192.27,829.67,194.41,832.94,180.8" style="stroke:#181818;stroke-width:1.0;"/></g><!--MD5=[cf518ca69c568c984bb57ff962929743]
link Coordinator to CommunityMassVaccinationCenters--><g id="link_Coordinator_CommunityMassVaccinationCenters"><path codeLine="38" d="M661,65.35 C661,81.57 661,101.65 661,117.84 " fill="none" id="Coordinator-CommunityMassVaccinationCenters" style="stroke:#181818;stroke-width:1.0;"/><polygon fill="#000000" points="620,86.6758,617.0611,95.7209,622.9389,95.7209,620,86.6758" style="stroke:#000000;stroke-width:1.0;"/><text fill="#000000" font-family="sans-serif" font-size="13" lengthAdjust="spacing" textLength="53" x="629" y="96.9951">manages</text><text fill="#000000" font-family="sans-serif" font-size="13" lengthAdjust="spacing" textLength="7" x="653.3328" y="86.0357">1</text><text fill="#000000" font-family="sans-serif" font-size="13" lengthAdjust="spacing" textLength="7" x="653.2344" y="107.2875">1</text></g><!--MD5=[fa18a5cddce426bb918bfacb4528457d]
@startuml
hide methods
left to right direction
skinparam classAttributeIconSize 0

'TODO
class Company {
  -name
  -address
  -phone
  -email
  -fax
  -website
  -openingHours
  -closingHours
  -slot
  -maxNumberVaccines
}

class CommunityMassVaccinationCenters{
-id
}

class HealthCareCenters{
-id
}

class Coordinator {
-Id
}

Company "1" - - "*" CommunityMassVaccinationCenters : has >
Company "1" - - "0..1" HealthCareCenters : has >
Company "1" - - - "*" Coordinator: conducts >

HealthCareCenters - -|>VacinationCenter
CommunityMassVaccinationCenters - -|>VacinationCenter

CommunityMassVaccinationCenters "1" -left- "1" Coordinator: manages >


@enduml

@startuml
hide methods
left to right direction
skinparam classAttributeIconSize 0

class Company {
  -name
  -address
  -phone
  -email
  -fax
  -website
  -openingHours
  -closingHours
  -slot
  -maxNumberVaccines
}

class CommunityMassVaccinationCenters{
-id
}

class HealthCareCenters{
-id
}

class Coordinator {
-Id
}

Company "1" - - "*" CommunityMassVaccinationCenters : has >
Company "1" - - "0..1" HealthCareCenters : has >
Company "1" - - - "*" Coordinator: conducts >

HealthCareCenters - -|>VacinationCenter
CommunityMassVaccinationCenters - -|>VacinationCenter

CommunityMassVaccinationCenters "1" -left- "1" Coordinator: manages >


@enduml

PlantUML version 1.2022.4(Sat Apr 09 14:29:17 BST 2022)
(GPL source distribution)
Java Runtime: OpenJDK Runtime Environment
JVM: OpenJDK 64-Bit Server VM
Default Encoding: Cp1252
Language: fr
Country: FR
--></g></svg>