<?xml version="1.0" encoding="UTF-8" standalone="no"?><svg xmlns="http://www.w3.org/2000/svg" xmlns:xlink="http://www.w3.org/1999/xlink" contentScriptType="application/ecmascript" contentStyleType="text/css" height="518px" preserveAspectRatio="none" style="width:1210px;height:518px;background:#FFFFFF;" version="1.1" viewBox="0 0 1210 518" width="1210px" zoomAndPan="magnify"><defs><filter height="300%" id="f1q73egb6rt5tn" width="300%" x="-1" y="-1"><feGaussianBlur result="blurOut" stdDeviation="2.0"/><feColorMatrix in="blurOut" result="blurOut2" type="matrix" values="0 0 0 0 0 0 0 0 0 0 0 0 0 0 0 0 0 0 .4 0"/><feOffset dx="4.0" dy="4.0" in="blurOut2" result="blurOut3"/><feBlend in="SourceGraphic" in2="blurOut3" mode="normal"/></filter></defs><g><rect fill="#FFFFFF" filter="url(#f1q73egb6rt5tn)" height="288.7188" style="stroke:#A80036;stroke-width:1.0;" width="10" x="204" y="73.9609"/><rect fill="#FFFFFF" filter="url(#f1q73egb6rt5tn)" height="30.3516" style="stroke:#A80036;stroke-width:1.0;" width="10" x="872" y="418.3828"/><rect fill="#FFFFFF" filter="url(#f1q73egb6rt5tn)" height="60.7031" style="stroke:#A80036;stroke-width:1.0;" width="10" x="1045" y="241.625"/><rect fill="#FFFFFF" filter="url(#f1q73egb6rt5tn)" height="30" style="stroke:#A80036;stroke-width:1.0;" width="10" x="1148" y="181.2734"/><rect fill="#FFFFFF" filter="url(#f1q73egb6rt5tn)" height="30" style="stroke:#A80036;stroke-width:1.0;" width="10" x="1148" y="332.6797"/><rect fill="#FFFFFF" filter="url(#f1q73egb6rt5tn)" height="30.3516" style="stroke:#A80036;stroke-width:1.0;" width="10" x="1148" y="418.3828"/><rect fill="#FFFFFF" filter="url(#f1q73egb6rt5tn)" height="79.0547" style="stroke:#000000;stroke-width:2.0;" width="432" x="764" y="377.6797"/><line style="stroke:#A80036;stroke-width:1.0;stroke-dasharray:5.0,5.0;" x1="209" x2="209" y1="41.6094" y2="473.7344"/><line style="stroke:#A80036;stroke-width:1.0;stroke-dasharray:5.0,5.0;" x1="669" x2="669" y1="115.2656" y2="473.7344"/><line style="stroke:#A80036;stroke-width:1.0;stroke-dasharray:5.0,5.0;" x1="877" x2="877" y1="41.6094" y2="473.7344"/><line style="stroke:#A80036;stroke-width:1.0;stroke-dasharray:5.0,5.0;" x1="1050" x2="1050" y1="41.6094" y2="473.7344"/><line style="stroke:#A80036;stroke-width:1.0;stroke-dasharray:5.0,5.0;" x1="1153" x2="1153" y1="41.6094" y2="473.7344"/><rect fill="#FEFECE" filter="url(#f1q73egb6rt5tn)" height="31.6094" style="stroke:#A80036;stroke-width:1.5;" width="78" x="168" y="5"/><text fill="#000000" font-family="sans-serif" font-size="14" lengthAdjust="spacing" textLength="64" x="175" y="26.5332">:Company</text><rect fill="#FEFECE" filter="url(#f1q73egb6rt5tn)" height="31.6094" style="stroke:#A80036;stroke-width:1.5;" width="78" x="168" y="472.7344"/><text fill="#000000" font-family="sans-serif" font-size="14" lengthAdjust="spacing" textLength="64" x="175" y="494.2676">:Company</text><rect fill="#FEFECE" filter="url(#f1q73egb6rt5tn)" height="31.6094" style="stroke:#A80036;stroke-width:1.5;" width="185" x="575" y="472.7344"/><text fill="#000000" font-family="sans-serif" font-size="14" lengthAdjust="spacing" textLength="171" x="582" y="494.2676">csvFile:VaccinatedSnsUser</text><rect fill="#FEFECE" filter="url(#f1q73egb6rt5tn)" height="31.6094" style="stroke:#A80036;stroke-width:1.5;" width="202" x="774" y="5"/><text fill="#000000" font-family="sans-serif" font-size="14" lengthAdjust="spacing" textLength="188" x="781" y="26.5332">task: VaccinatedSnsUserTask</text><rect fill="#FEFECE" filter="url(#f1q73egb6rt5tn)" height="31.6094" style="stroke:#A80036;stroke-width:1.5;" width="202" x="774" y="472.7344"/><text fill="#000000" font-family="sans-serif" font-size="14" lengthAdjust="spacing" textLength="188" x="781" y="494.2676">task: VaccinatedSnsUserTask</text><rect fill="#FEFECE" filter="url(#f1q73egb6rt5tn)" height="31.6094" style="stroke:#A80036;stroke-width:1.5;" width="116" x="990" y="5"/><text fill="#000000" font-family="sans-serif" font-size="14" lengthAdjust="spacing" textLength="102" x="997" y="26.5332">prop: Properties</text><rect fill="#FEFECE" filter="url(#f1q73egb6rt5tn)" height="31.6094" style="stroke:#A80036;stroke-width:1.5;" width="116" x="990" y="472.7344"/><text fill="#000000" font-family="sans-serif" font-size="14" lengthAdjust="spacing" textLength="102" x="997" y="494.2676">prop: Properties</text><rect fill="#FEFECE" filter="url(#f1q73egb6rt5tn)" height="31.6094" style="stroke:#A80036;stroke-width:1.5;" width="62" x="1120" y="5"/><text fill="#000000" font-family="sans-serif" font-size="14" lengthAdjust="spacing" textLength="48" x="1127" y="26.5332">t: Timer</text><rect fill="#FEFECE" filter="url(#f1q73egb6rt5tn)" height="31.6094" style="stroke:#A80036;stroke-width:1.5;" width="62" x="1120" y="472.7344"/><text fill="#000000" font-family="sans-serif" font-size="14" lengthAdjust="spacing" textLength="48" x="1127" y="494.2676">t: Timer</text><rect fill="#FFFFFF" filter="url(#f1q73egb6rt5tn)" height="288.7188" style="stroke:#A80036;stroke-width:1.0;" width="10" x="204" y="73.9609"/><rect fill="#FFFFFF" filter="url(#f1q73egb6rt5tn)" height="30.3516" style="stroke:#A80036;stroke-width:1.0;" width="10" x="872" y="418.3828"/><rect fill="#FFFFFF" filter="url(#f1q73egb6rt5tn)" height="60.7031" style="stroke:#A80036;stroke-width:1.0;" width="10" x="1045" y="241.625"/><rect fill="#FFFFFF" filter="url(#f1q73egb6rt5tn)" height="30" style="stroke:#A80036;stroke-width:1.0;" width="10" x="1148" y="181.2734"/><rect fill="#FFFFFF" filter="url(#f1q73egb6rt5tn)" height="30" style="stroke:#A80036;stroke-width:1.0;" width="10" x="1148" y="332.6797"/><rect fill="#FFFFFF" filter="url(#f1q73egb6rt5tn)" height="30.3516" style="stroke:#A80036;stroke-width:1.0;" width="10" x="1148" y="418.3828"/><ellipse cx="7.5" cy="73.2109" fill="none" rx="4" ry="4" style="stroke:#A80036;stroke-width:1.5;"/><polygon fill="#A80036" points="192,69.9609,202,73.9609,192,77.9609,196,73.9609" style="stroke:#A80036;stroke-width:1.0;"/><line style="stroke:#A80036;stroke-width:1.0;stroke-dasharray:2.0,2.0;" x1="12" x2="198" y1="73.9609" y2="73.9609"/><text fill="#000000" font-family="sans-serif" font-size="13" font-weight="bold" lengthAdjust="spacing" textLength="7" x="15" y="69.1045">1</text><text fill="#000000" font-family="sans-serif" font-size="13" lengthAdjust="spacing" textLength="166" x="26" y="69.1045">scheduleVaccineTask(delay)</text><polygon fill="#A80036" points="563,100.3125,573,104.3125,563,108.3125,567,104.3125" style="stroke:#A80036;stroke-width:1.0;"/><line style="stroke:#A80036;stroke-width:1.0;" x1="214" x2="569" y1="104.3125" y2="104.3125"/><text fill="#000000" font-family="sans-serif" font-size="13" font-weight="bold" lengthAdjust="spacing" textLength="7" x="221" y="99.4561">2</text><text fill="#000000" font-family="sans-serif" font-size="13" lengthAdjust="spacing" textLength="326" x="232" y="99.4561">recordedData = generateCsvFile(vaccinationCenterStore)</text><rect fill="#FEFECE" filter="url(#f1q73egb6rt5tn)" height="31.6094" style="stroke:#A80036;stroke-width:1.5;" width="185" x="575" y="81.9609"/><text fill="#000000" font-family="sans-serif" font-size="14" lengthAdjust="spacing" textLength="171" x="582" y="103.4941">csvFile:VaccinatedSnsUser</text><polygon fill="#A80036" points="865,146.9219,875,150.9219,865,154.9219,869,150.9219" style="stroke:#A80036;stroke-width:1.0;"/><line style="stroke:#A80036;stroke-width:1.0;stroke-dasharray:2.0,2.0;" x1="214" x2="871" y1="150.9219" y2="150.9219"/><text fill="#000000" font-family="sans-serif" font-size="13" font-weight="bold" lengthAdjust="spacing" textLength="7" x="221" y="146.0654">3</text><text fill="#000000" font-family="sans-serif" font-size="13" lengthAdjust="spacing" textLength="121" x="232" y="146.0654">create(recordedData)</text><polygon fill="#A80036" points="1136,177.2734,1146,181.2734,1136,185.2734,1140,181.2734" style="stroke:#A80036;stroke-width:1.0;"/><line style="stroke:#A80036;stroke-width:1.0;stroke-dasharray:2.0,2.0;" x1="214" x2="1142" y1="181.2734" y2="181.2734"/><text fill="#000000" font-family="sans-serif" font-size="13" font-weight="bold" lengthAdjust="spacing" textLength="7" x="221" y="176.417">4</text><text fill="#000000" font-family="sans-serif" font-size="13" lengthAdjust="spacing" textLength="44" x="232" y="176.417">create()</text><polygon fill="#A80036" points="1033,237.625,1043,241.625,1033,245.625,1037,241.625" style="stroke:#A80036;stroke-width:1.0;"/><line style="stroke:#A80036;stroke-width:1.0;" x1="214" x2="1039" y1="241.625" y2="241.625"/><text fill="#000000" font-family="sans-serif" font-size="13" font-weight="bold" lengthAdjust="spacing" textLength="7" x="221" y="236.7686">5</text><text fill="#000000" font-family="sans-serif" font-size="13" lengthAdjust="spacing" textLength="173" x="232" y="236.7686">props.load("config.properties")</text><polygon fill="#A80036" points="1033,267.9766,1043,271.9766,1033,275.9766,1037,271.9766" style="stroke:#A80036;stroke-width:1.0;"/><line style="stroke:#A80036;stroke-width:1.0;" x1="214" x2="1039" y1="271.9766" y2="271.9766"/><text fill="#000000" font-family="sans-serif" font-size="13" font-weight="bold" lengthAdjust="spacing" textLength="7" x="221" y="267.1201">6</text><text fill="#000000" font-family="sans-serif" font-size="13" lengthAdjust="spacing" textLength="187" x="232" y="267.1201">date = props.getProperty("date")</text><polygon fill="#A80036" points="1038,298.3281,1048,302.3281,1038,306.3281,1042,302.3281" style="stroke:#A80036;stroke-width:1.0;"/><line style="stroke:#A80036;stroke-width:1.0;" x1="214" x2="1044" y1="302.3281" y2="302.3281"/><text fill="#000000" font-family="sans-serif" font-size="13" font-weight="bold" lengthAdjust="spacing" textLength="7" x="221" y="297.4717">7</text><text fill="#000000" font-family="sans-serif" font-size="13" lengthAdjust="spacing" textLength="199" x="232" y="297.4717">delay = props.getProperty("delay")</text><polygon fill="#A80036" points="1136,328.6797,1146,332.6797,1136,336.6797,1140,332.6797" style="stroke:#A80036;stroke-width:1.0;"/><line style="stroke:#A80036;stroke-width:1.0;" x1="214" x2="1142" y1="332.6797" y2="332.6797"/><text fill="#000000" font-family="sans-serif" font-size="13" font-weight="bold" lengthAdjust="spacing" textLength="7" x="221" y="327.8232">8</text><text fill="#000000" font-family="sans-serif" font-size="13" lengthAdjust="spacing" textLength="157" x="232" y="327.8232">schedule(task, date, delay)</text><path d="M764,377.6797 L837,377.6797 L837,385.6797 L827,395.6797 L764,395.6797 L764,377.6797 " fill="#EEEEEE" style="stroke:#000000;stroke-width:1.0;"/><rect fill="none" height="79.0547" style="stroke:#000000;stroke-width:2.0;" width="432" x="764" y="377.6797"/><text fill="#000000" font-family="sans-serif" font-size="13" font-weight="bold" lengthAdjust="spacing" textLength="28" x="779" y="392.1748">loop</text><text fill="#000000" font-family="sans-serif" font-size="11" font-weight="bold" lengthAdjust="spacing" textLength="144" x="852" y="391.0986">[every day at the set time]</text><polygon fill="#A80036" points="893,414.3828,883,418.3828,893,422.3828,889,418.3828" style="stroke:#A80036;stroke-width:1.0;"/><line style="stroke:#A80036;stroke-width:1.0;" x1="887" x2="1147" y1="418.3828" y2="418.3828"/><text fill="#000000" font-family="sans-serif" font-size="13" font-weight="bold" lengthAdjust="spacing" textLength="7" x="899" y="413.5264">9</text><text fill="#000000" font-family="sans-serif" font-size="13" lengthAdjust="spacing" textLength="26" x="910" y="413.5264">run()</text><polygon fill="#A80036" points="888,444.7344,878,448.7344,888,452.7344,884,448.7344" style="stroke:#A80036;stroke-width:1.0;"/><line style="stroke:#A80036;stroke-width:1.0;" x1="882" x2="1152" y1="448.7344" y2="448.7344"/><text fill="#000000" font-family="sans-serif" font-size="13" font-weight="bold" lengthAdjust="spacing" textLength="14" x="894" y="443.8779">10</text><text fill="#000000" font-family="sans-serif" font-size="13" lengthAdjust="spacing" textLength="82" x="912" y="443.8779">saveRun(data)</text><!--MD5=[a01c5985617c9cba900d9942303bdefd]
@startuml
autonumber
participant ":Company" as CMP
participant "csvFile:VaccinatedSnsUser" as CVS
participant "task: VaccinatedSnsUserTask" as VST
participant "prop: Properties" as PRP
participant "t: Timer" as TMR


[o- -> CMP : scheduleVaccineTask(delay)

activate CMP

CMP -> CVS ** : recordedData = generateCsvFile(vaccinationCenterStore)

CMP - -> VST : create(recordedData)
CMP - -> TMR  : create()
activate TMR
deactivate TMR
CMP -> PRP : props.load("config.properties")

activate PRP

CMP ->  PRP : date = props.getProperty("date")

CMP ->  PRP : delay = props.getProperty("delay")

deactivate PRP

CMP -> TMR : schedule(task, date, delay)

activate TMR

deactivate TMR

deactivate CMP

loop every day at the set time

TMR -> VST : run()

activate TMR

activate VST

TMR -> VST : saveRun(data)

deactivate TMR

deactivate VST

end
@enduml

PlantUML version 1.2022.1(Tue Feb 01 18:19:58 GMT 2022)
(GPL source distribution)
Java Runtime: OpenJDK Runtime Environment
JVM: OpenJDK 64-Bit Server VM
Default Encoding: Cp1252
Language: en
Country: US
--></g></svg>