@startuml
autonumber
participant ":Company" as CMP
participant "csvFile:VaccinatedSnsUser" as CVS
participant "task: VaccinatedSnsUserTask" as VST
participant "prop: Properties" as PRP
participant "t: Timer" as TMR


[o--> CMP : scheduleVaccineTask(delay)

activate CMP

CMP -> CVS ** : recordedData = generateCsvFile(vaccinationCenterStore)

CMP --> VST : create(recordedData)
CMP --> TMR  : create()
activate TMR
deactivate TMR
CMP -> PRP : props.load("config.properties")

activate PRP

CMP ->  PRP : date = props.getProperty("date")

CMP ->  PRP : delay = props.getProperty("delay")

deactivate PRP

CMP -> TMR : schedule(task, date, delay)

activate TMR

deactivate TMR

deactivate CMP

loop every day at the set time

TMR -> VST : run()

activate TMR

activate VST

TMR -> VST : saveRun(data)

deactivate TMR

deactivate VST

end
@enduml