@startuml
autonumber

actor "Administrator" as ADMIN
participant ":LoadCsvSNSUsersUI" as UI
participant ":LoadCsvSNSUsersController" as CTRL
participant ":LoadCsvSNSUsersAdapter" as ADAP
participant "listDto: ArrayList<SNSUserDto>" as LIST
participant ":Company" as COMPANY
participant "store: SNSUserStore" as STORE
participant ":SNSUserDTO" as DTO
participant ":SNSUser" as USER
participant "password:PasswordGenerator" as PASSWD

activate ADMIN
ADMIN ->  UI : Selects the option to load a set of users from a CSV file
activate UI

UI --> ADMIN : Requests the file path to CSV file
deactivate UI

ADMIN -> UI : Types requested path to CSV file
activate UI

UI -> CTRL : CsvFileExists(path)
activate CTRL
CTRL -> COMPANY : store = getSNSUserStore()
activate COMPANY
deactivate COMPANY

CTRL -> ADAP: listDto = readCsv(path)
activate ADAP
ADAP --> LIST**: create

loop while file has SNS Users

    ADAP -> USER**: validateName(nameUser), validateBirthDate(birthDate), etc
    activate USER
    deactivate USER

    ADAP --> DTO**: SNSUserDto(nameUser, birthDate, snsNumber, phoneNumber, emailAddress, ccNumber, userAddress, sexUser)
    activate DTO
    deactivate DTO

end
deactivate ADAP
deactivate USER
deactivate DTO

loop while listDTO has SNSUserDto

    CTRL -> STORE: createSNSUser(nameUser, birthDate, snsNumber, phoneNumber, emailAddress, ccNumber, userAddress, sexUser)
    activate STORE
    STORE -> USER**: snsuser = SNSUser(nameUser, birthDate, snsNumber, phoneNumber, emailAddress, ccNumber, userAddress, sexUser)
    activate USER
    STORE -> STORE: existsSNSUserStore(snsuser)
    activate STORE
    deactivate STORE



    CTRL -> COMPANY: existsUser(snsuser)
    activate COMPANY
    deactivate COMPANY

end

deactivate STORE
deactivate CTRL
deactivate USER
UI --> ADMIN: shows how many SNS users are ready to load and asks for confirmation
deactivate UI

ADMIN -> UI: confirms the operation
activate UI
UI -> CTRL: addSNSUsersDtoToStore(listDto)
activate CTRL
loop while listDTO has SNSUserDto

    CTRL -> STORE: createSNSUser(nameUser, birthDate, snsNumber, phoneNumber, emailAddress, ccNumber, userAddress, sexUser)
    activate STORE
    STORE -> USER**: snsuser = SNSUser(nameUser, birthDate, snsNumber, phoneNumber, emailAddress, ccNumber, userAddress, sexUser)
    activate USER
    deactivate USER
    deactivate USER
    deactivate USER

    STORE -> STORE: addSNSUserToStore(snsuser)
    activate STORE
    deactivate STORE

    CTRL -> COMPANY: createAuthUser(snsuser)
    activate COMPANY

    COMPANY -> USER: name = getName()
    COMPANY -> USER: email = getEmailAddress()
    deactivate USER
    COMPANY -> PASSWD**: password = generatePassword()
    activate PASSWD

    COMPANY -> COMPANY: addUserWithRole(name,email,password,"USER");

    deactivate PASSWD
    activate COMPANY

end

deactivate CTRL
deactivate COMPANY
deactivate STORE
deactivate COMPANY
deactivate USER
deactivate PASSWD

UI -> ADMIN: Informs operation success



@enduml