<?xml version="1.0" encoding="UTF-8" standalone="no"?><svg xmlns="http://www.w3.org/2000/svg" xmlns:xlink="http://www.w3.org/1999/xlink" contentScriptType="application/ecmascript" contentStyleType="text/css" height="2780px" preserveAspectRatio="none" style="width:742px;height:2780px;background:#FFFFFF;" version="1.1" viewBox="0 0 742 2780" width="742px" zoomAndPan="magnify"><defs><filter height="300%" id="f5dqzncwi8r7z" width="300%" x="-1" y="-1"><feGaussianBlur result="blurOut" stdDeviation="2.0"/><feColorMatrix in="blurOut" result="blurOut2" type="matrix" values="0 0 0 0 0 0 0 0 0 0 0 0 0 0 0 0 0 0 .4 0"/><feOffset dx="4.0" dy="4.0" in="blurOut2" result="blurOut3"/><feBlend in="SourceGraphic" in2="blurOut3" mode="normal"/></filter></defs><g><!--MD5=[54091c3621cce3d68adbf4984ac7366b]
entity SNS User--><ellipse cx="67" cy="2594.5" fill="#FEFECE" filter="url(#f5dqzncwi8r7z)" rx="8" ry="8" style="stroke:#A80036;stroke-width:1.5;"/><path d="M67,2602.5 L67,2629.5 M54,2610.5 L80,2610.5 M67,2629.5 L54,2644.5 M67,2629.5 L80,2644.5 " fill="none" filter="url(#f5dqzncwi8r7z)" style="stroke:#A80036;stroke-width:1.5;"/><text fill="#000000" font-family="sans-serif" font-size="14" lengthAdjust="spacing" textLength="60" x="37" y="2664.5332">SNS User</text><ellipse cx="459.0397" cy="2523.3079" fill="#FEFECE" filter="url(#f5dqzncwi8r7z)" rx="104.5397" ry="23.3079" style="stroke:#A80036;stroke-width:1.5;"/><text fill="#000000" font-family="sans-serif" font-size="14" lengthAdjust="spacing" textLength="171" x="373.5397" y="2527.0365">UC01 - Schedule a vaccine</text><!--MD5=[87a04b683345c3cce94ac9a6e159ab2f]
entity Receptionist--><ellipse cx="67" cy="2286.5" fill="#FEFECE" filter="url(#f5dqzncwi8r7z)" rx="8" ry="8" style="stroke:#A80036;stroke-width:1.5;"/><path d="M67,2294.5 L67,2321.5 M54,2302.5 L80,2302.5 M67,2321.5 L54,2336.5 M67,2321.5 L80,2336.5 " fill="none" filter="url(#f5dqzncwi8r7z)" style="stroke:#A80036;stroke-width:1.5;"/><text fill="#000000" font-family="sans-serif" font-size="14" lengthAdjust="spacing" textLength="78" x="28" y="2356.5332">Receptionist</text><ellipse cx="459.0137" cy="2233.4027" fill="#FEFECE" filter="url(#f5dqzncwi8r7z)" rx="115.0137" ry="25.4027" style="stroke:#A80036;stroke-width:1.5;"/><text fill="#000000" font-family="sans-serif" font-size="14" lengthAdjust="spacing" textLength="194" x="362.0137" y="2237.1313">UC02 - Schedule a vaccination</text><ellipse cx="458.7512" cy="2318.3502" fill="#FEFECE" filter="url(#f5dqzncwi8r7z)" rx="107.2512" ry="23.8502" style="stroke:#A80036;stroke-width:1.5;"/><text fill="#000000" font-family="sans-serif" font-size="14" lengthAdjust="spacing" textLength="177" x="370.2512" y="2322.0788">UC03 - Register a SNS User</text><ellipse cx="458.859" cy="2421.3718" fill="#FEFECE" filter="url(#f5dqzncwi8r7z)" rx="204.859" ry="43.3718" style="stroke:#A80036;stroke-width:1.5;"/><text fill="#000000" font-family="sans-serif" font-size="14" lengthAdjust="spacing" textLength="382" x="267.859" y="2425.1003">UC04 - Register the arrival of a SNS user to take the vaccine</text><!--MD5=[c8b2cb7ab209025f476c1467c68b906a]
entity Nurse--><ellipse cx="67" cy="1701.5" fill="#FEFECE" filter="url(#f5dqzncwi8r7z)" rx="8" ry="8" style="stroke:#A80036;stroke-width:1.5;"/><path d="M67,1709.5 L67,1736.5 M54,1717.5 L80,1717.5 M67,1736.5 L54,1751.5 M67,1736.5 L80,1751.5 " fill="none" filter="url(#f5dqzncwi8r7z)" style="stroke:#A80036;stroke-width:1.5;"/><text fill="#000000" font-family="sans-serif" font-size="14" lengthAdjust="spacing" textLength="37" x="48.5" y="1771.5332">Nurse</text><ellipse cx="458.8615" cy="1385.3723" fill="#FEFECE" filter="url(#f5dqzncwi8r7z)" rx="227.3615" ry="47.8723" style="stroke:#A80036;stroke-width:1.5;"/><text fill="#000000" font-family="sans-serif" font-size="14" lengthAdjust="spacing" textLength="428" x="244.8615" y="1389.1008">UC05 - Consult the users in the waiting room of a vaccination center</text><ellipse cx="459.2415" cy="2626.3483" fill="#FEFECE" filter="url(#f5dqzncwi8r7z)" rx="209.7415" ry="44.3483" style="stroke:#A80036;stroke-width:1.5;"/><text fill="#000000" font-family="sans-serif" font-size="14" lengthAdjust="spacing" textLength="392" x="263.2415" y="2630.0768">UC06 - Accept that the System can send SMS to the SNS User</text><!--MD5=[abea0b42432aea0f9ce66e53feda8644]
entity System--><ellipse cx="67" cy="1158.5" fill="#FEFECE" filter="url(#f5dqzncwi8r7z)" rx="8" ry="8" style="stroke:#A80036;stroke-width:1.5;"/><path d="M67,1166.5 L67,1193.5 M54,1174.5 L80,1174.5 M67,1193.5 L54,1208.5 M67,1193.5 L80,1208.5 " fill="none" filter="url(#f5dqzncwi8r7z)" style="stroke:#A80036;stroke-width:1.5;"/><text fill="#000000" font-family="sans-serif" font-size="14" lengthAdjust="spacing" textLength="46" x="44" y="1228.5332">System</text><ellipse cx="459.0206" cy="1127.6041" fill="#FEFECE" filter="url(#f5dqzncwi8r7z)" rx="198.5206" ry="42.1041" style="stroke:#A80036;stroke-width:1.5;"/><text fill="#000000" font-family="sans-serif" font-size="14" lengthAdjust="spacing" textLength="369" x="274.5206" y="1131.3326">UC07 - Send a SMS to SNS User with schedule information</text><ellipse cx="458.772" cy="1505.6544" fill="#FEFECE" filter="url(#f5dqzncwi8r7z)" rx="173.772" ry="37.1544" style="stroke:#A80036;stroke-width:1.5;"/><text fill="#000000" font-family="sans-serif" font-size="14" lengthAdjust="spacing" textLength="318" x="299.772" y="1509.3829">UC08 - Check SNS User info and health conditions</text><!--MD5=[62529e7d5259bf274c3bf3e446350d88]
entity Administrator--><ellipse cx="67" cy="682.5" fill="#FEFECE" filter="url(#f5dqzncwi8r7z)" rx="8" ry="8" style="stroke:#A80036;stroke-width:1.5;"/><path d="M67,690.5 L67,717.5 M54,698.5 L80,698.5 M67,717.5 L54,732.5 M67,717.5 L80,732.5 " fill="none" filter="url(#f5dqzncwi8r7z)" style="stroke:#A80036;stroke-width:1.5;"/><text fill="#000000" font-family="sans-serif" font-size="14" lengthAdjust="spacing" textLength="83" x="25.5" y="752.5332">Administrator</text><ellipse cx="459.2112" cy="400.4422" fill="#FEFECE" filter="url(#f5dqzncwi8r7z)" rx="235.2112" ry="49.4422" style="stroke:#A80036;stroke-width:1.5;"/><text fill="#000000" font-family="sans-serif" font-size="14" lengthAdjust="spacing" textLength="444" x="237.2112" y="404.1708">UC09 - Register a vaccination center to respond to a certain pandemic</text><ellipse cx="458.804" cy="510.2608" fill="#FEFECE" filter="url(#f5dqzncwi8r7z)" rx="111.804" ry="24.7608" style="stroke:#A80036;stroke-width:1.5;"/><text fill="#000000" font-family="sans-serif" font-size="14" lengthAdjust="spacing" textLength="187" x="365.304" y="513.9893">UC10 - Register an Employee</text><ellipse cx="459.2347" cy="611.5469" fill="#FEFECE" filter="url(#f5dqzncwi8r7z)" rx="190.7347" ry="40.5469" style="stroke:#A80036;stroke-width:1.5;"/><text fill="#000000" font-family="sans-serif" font-size="14" lengthAdjust="spacing" textLength="353" x="282.7347" y="615.2755">UC11 - Get a list of Employees with a given function/role</text><ellipse cx="459.1384" cy="714.6277" fill="#FEFECE" filter="url(#f5dqzncwi8r7z)" rx="126.1384" ry="27.6277" style="stroke:#A80036;stroke-width:1.5;"/><text fill="#000000" font-family="sans-serif" font-size="14" lengthAdjust="spacing" textLength="218" x="350.1384" y="718.3562">UC12 - Specify a new vaccine type</text><ellipse cx="458.8954" cy="820.5791" fill="#FEFECE" filter="url(#f5dqzncwi8r7z)" rx="203.3954" ry="43.0791" style="stroke:#A80036;stroke-width:1.5;"/><text fill="#000000" font-family="sans-serif" font-size="14" lengthAdjust="spacing" textLength="379" x="269.3954" y="824.3076">UC13 - Specify a new vaccine and its administration process</text><ellipse cx="458.7585" cy="931.3517" fill="#FEFECE" filter="url(#f5dqzncwi8r7z)" rx="149.7585" ry="32.3517" style="stroke:#A80036;stroke-width:1.5;"/><text fill="#000000" font-family="sans-serif" font-size="14" lengthAdjust="spacing" textLength="268" x="324.7585" y="935.0802">UC14 - Load a set of users from a CSV file</text><ellipse cx="459.0137" cy="1024.4027" fill="#FEFECE" filter="url(#f5dqzncwi8r7z)" rx="115.0137" ry="25.4027" style="stroke:#A80036;stroke-width:1.5;"/><text fill="#000000" font-family="sans-serif" font-size="14" lengthAdjust="spacing" textLength="194" x="362.0137" y="1028.1313">UC15 - Register new SNS User</text><ellipse cx="458.9103" cy="1614.3821" fill="#FEFECE" filter="url(#f5dqzncwi8r7z)" rx="169.9103" ry="36.3821" style="stroke:#A80036;stroke-width:1.5;"/><text fill="#000000" font-family="sans-serif" font-size="14" lengthAdjust="spacing" textLength="310" x="303.9103" y="1618.1106">UC16 - Register adverse reactions of a SNS User</text><ellipse cx="458.9507" cy="1733.4901" fill="#FEFECE" filter="url(#f5dqzncwi8r7z)" rx="222.9507" ry="46.9901" style="stroke:#A80036;stroke-width:1.5;"/><text fill="#000000" font-family="sans-serif" font-size="14" lengthAdjust="spacing" textLength="419" x="249.4507" y="1737.2187">UC17 - Request and deliver a vaccination certificate to a SNS User</text><!--MD5=[82a522313bfc4f974eee49ca87622a63]
entity Center Coordinator--><ellipse cx="67" cy="107.5" fill="#FEFECE" filter="url(#f5dqzncwi8r7z)" rx="8" ry="8" style="stroke:#A80036;stroke-width:1.5;"/><path d="M67,115.5 L67,142.5 M54,123.5 L80,123.5 M67,142.5 L54,157.5 M67,142.5 L80,157.5 " fill="none" filter="url(#f5dqzncwi8r7z)" style="stroke:#A80036;stroke-width:1.5;"/><text fill="#000000" font-family="sans-serif" font-size="14" lengthAdjust="spacing" textLength="122" x="6" y="177.5332">Center Coordinator</text><ellipse cx="458.8945" cy="31.6789" fill="#FEFECE" filter="url(#f5dqzncwi8r7z)" rx="116.3945" ry="25.6789" style="stroke:#A80036;stroke-width:1.5;"/><text fill="#000000" font-family="sans-serif" font-size="14" lengthAdjust="spacing" textLength="197" x="360.3945" y="35.4074">UC18 - Get a list of all vaccines</text><ellipse cx="458.7571" cy="1253.4514" fill="#FEFECE" filter="url(#f5dqzncwi8r7z)" rx="232.7571" ry="48.9514" style="stroke:#A80036;stroke-width:1.5;"/><text fill="#000000" font-family="sans-serif" font-size="14" lengthAdjust="spacing" textLength="439" x="239.2571" y="1257.1799">UC19 - Trigger a notification to alert SNS User to leave recovery room</text><ellipse cx="459.0988" cy="1857.5198" fill="#FEFECE" filter="url(#f5dqzncwi8r7z)" rx="195.5988" ry="41.5198" style="stroke:#A80036;stroke-width:1.5;"/><text fill="#000000" font-family="sans-serif" font-size="14" lengthAdjust="spacing" textLength="363" x="277.5988" y="1861.2483">UC20 - Check which/how vaccine should be administrated</text><ellipse cx="459.1295" cy="1979.3259" fill="#FEFECE" filter="url(#f5dqzncwi8r7z)" rx="214.6295" ry="45.3259" style="stroke:#A80036;stroke-width:1.5;"/><text fill="#000000" font-family="sans-serif" font-size="14" lengthAdjust="spacing" textLength="402" x="258.1295" y="1983.0544">UC21 - Register that a vaccine was administrated to a SNS User</text><ellipse cx="459.1386" cy="2116.6277" fill="#FEFECE" filter="url(#f5dqzncwi8r7z)" rx="271.1386" ry="56.6277" style="stroke:#A80036;stroke-width:1.5;"/><text fill="#000000" font-family="sans-serif" font-size="14" lengthAdjust="spacing" textLength="517" x="200.6386" y="2120.3562">UC22 - Register vaccine type/brand/lot of the vaccine administrated to a SNS User</text><ellipse cx="459.122" cy="2737.4244" fill="#FEFECE" filter="url(#f5dqzncwi8r7z)" rx="142.622" ry="30.9244" style="stroke:#A80036;stroke-width:1.5;"/><text fill="#000000" font-family="sans-serif" font-size="14" lengthAdjust="spacing" textLength="253" x="332.622" y="2741.1529">UC23 - Request a vaccination certificate</text><ellipse cx="458.971" cy="139.2942" fill="#FEFECE" filter="url(#f5dqzncwi8r7z)" rx="221.971" ry="46.7942" style="stroke:#A80036;stroke-width:1.5;"/><text fill="#000000" font-family="sans-serif" font-size="14" lengthAdjust="spacing" textLength="417" x="250.471" y="143.0227">UC24 - Monitor the vaccination process by statistics/charts/reports</text><ellipse cx="458.9406" cy="268.5881" fill="#FEFECE" filter="url(#f5dqzncwi8r7z)" rx="223.4406" ry="47.0881" style="stroke:#A80036;stroke-width:1.5;"/><text fill="#000000" font-family="sans-serif" font-size="14" lengthAdjust="spacing" textLength="420" x="248.9406" y="272.3166">UC25 - Access other vaccination center data including law systems</text><!--MD5=[6c4c24afc5581d0dcfa3d73314fb65b6]
link SNS User to UC01 - Schedule a vaccine--><path d="M97.39,2607.85 C120.98,2593.75 155.44,2575.07 188,2564.5 C243.24,2546.57 307.44,2536.41 359.37,2530.69 " fill="none" id="SNS User-UC01 - Schedule a vaccine" style="stroke:#A80036;stroke-width:1.0;"/><!--MD5=[628901943d101b364648853d757c5786]
link Receptionist to UC02 - Schedule a vaccination--><path d="M106.15,2303.63 C129.49,2295 160.13,2284.48 188,2277.5 C243.52,2263.6 306.59,2253.03 357.81,2245.75 " fill="none" id="Receptionist-UC02 - Schedule a vaccination" style="stroke:#A80036;stroke-width:1.0;"/><!--MD5=[1d2429f0a5918e095f38e4157982e083]
link Receptionist to UC03 - Register a SNS User--><path d="M106.1,2318.5 C162.36,2318.5 269.75,2318.5 351.17,2318.5 " fill="none" id="Receptionist-UC03 - Register a SNS User" style="stroke:#A80036;stroke-width:1.0;"/><!--MD5=[2ef5c5a5f1036094897ffe43cef297da]
link Receptionist to UC04 - Register the arrival of a SNS user to take the vaccine--><path d="M106.01,2333.06 C129.44,2341.71 160.21,2352.52 188,2360.5 C227.38,2371.8 270.47,2382.34 310.44,2391.37 " fill="none" id="Receptionist-UC04 - Register the arrival of a SNS user to take the vaccine" style="stroke:#A80036;stroke-width:1.0;"/><!--MD5=[78b40385d6d441384cc3750ffcee9448]
link Nurse to UC05 - Consult the users in the waiting room of a vaccination center--><path d="M73.83,1691.89 C84.76,1629.95 114.29,1514.1 188,1451.5 C209.7,1433.07 235.74,1419.63 262.96,1409.86 " fill="none" id="Nurse-UC05 - Consult the users in the waiting room of a vaccination center" style="stroke:#A80036;stroke-width:1.0;"/><!--MD5=[1d4cd4a64d14b4af7bee6e0a3ffedd2d]
link SNS User to UC06 - Accept that the System can send SMS to the SNS User--><path d="M97.31,2626.5 C130.97,2626.5 189.32,2626.5 249.4,2626.5 " fill="none" id="SNS User-UC06 - Accept that the System can send SMS to the SNS User" style="stroke:#A80036;stroke-width:1.0;"/><!--MD5=[6dc6fba67759026e515254617bcab4e4]
link System to UC07 - Send a SMS to SNS User with schedule information--><path d="M90.09,1186.93 C130.61,1180.39 220.1,1165.93 300.67,1152.92 " fill="none" id="System-UC07 - Send a SMS to SNS User with schedule information" style="stroke:#A80036;stroke-width:1.0;"/><!--MD5=[eb957626046b9a325a46aa83647e76ef]
link Nurse to UC08 - Check SNS User info and health conditions--><path d="M85.55,1691.96 C104.72,1651.84 139.32,1592.58 188,1560.5 C219.76,1539.57 257.83,1526.34 295.23,1518.04 " fill="none" id="Nurse-UC08 - Check SNS User info and health conditions" style="stroke:#A80036;stroke-width:1.0;"/><!--MD5=[e74d79aca93b70f08ece185798b4cfef]
link Administrator to UC09 - Register a vaccination center to respond to a certain pandemic--><path d="M76.81,672.89 C90.7,617.72 123.07,521.21 188,468.5 C209.86,450.75 235.75,437.56 262.71,427.77 " fill="none" id="Administrator-UC09 - Register a vaccination center to respond to a certain pandemic" style="stroke:#A80036;stroke-width:1.0;"/><!--MD5=[36fac6232e0c05d3290984ab1e4a3686]
link Administrator to UC10 - Register an Employee--><path d="M87.33,672.88 C107.09,635.28 141.47,581.65 188,553.5 C235.31,524.87 295.48,513.4 347,509.39 " fill="none" id="Administrator-UC10 - Register an Employee" style="stroke:#A80036;stroke-width:1.0;"/><!--MD5=[0eef5b673f5b7fe7801def098112adb6]
link Administrator to UC11 - Get a list of Employees with a given function/role--><path d="M108.59,697.57 C131.61,688.41 161.1,677.39 188,669.5 C228.83,657.53 273.8,646.89 315.14,638.09 " fill="none" id="Administrator-UC11 - Get a list of Employees with a given function/role" style="stroke:#A80036;stroke-width:1.0;"/><!--MD5=[204cddb3b21c682f92a29acba7420841]
link Administrator to UC12 - Specify a new vaccine type--><path d="M108.63,714.5 C161.31,714.5 255.58,714.5 332.94,714.5 " fill="none" id="Administrator-UC12 - Specify a new vaccine type" style="stroke:#A80036;stroke-width:1.0;"/><!--MD5=[b7379a943c90709bca28460ade8ae1af]
link Administrator to UC13 - Specify a new vaccine and its administration process--><path d="M108.63,731.32 C131.65,740.44 161.14,751.47 188,759.5 C227.37,771.27 270.56,781.98 310.62,791.03 " fill="none" id="Administrator-UC13 - Specify a new vaccine and its administration process" style="stroke:#A80036;stroke-width:1.0;"/><!--MD5=[159394ca45ec7970291e59f30d12c455]
link Administrator to UC14 - Load a set of users from a CSV file--><path d="M86.54,756.26 C106.04,795.11 140.52,851.37 188,881.5 C224.63,904.74 269.33,917.78 311.75,924.93 " fill="none" id="Administrator-UC14 - Load a set of users from a CSV file" style="stroke:#A80036;stroke-width:1.0;"/><!--MD5=[5586cb35f5e4d4b54cba8c96b9f3f12b]
link Administrator to UC15 - Register new SNS User--><path d="M74.24,756.43 C85.54,816.49 115.35,925.91 188,981.5 C232.67,1015.68 293.84,1027.43 346.66,1030.19 " fill="none" id="Administrator-UC15 - Register new SNS User" style="stroke:#A80036;stroke-width:1.0;"/><!--MD5=[112d96251c1d63a4b7c153a0e9686707]
link Nurse to UC16 - Register adverse reactions of a SNS User--><path d="M85.54,1722.04 C108.28,1707.7 149.57,1683.33 188,1669.5 C229.3,1654.64 275.68,1643.36 318.19,1635.02 " fill="none" id="Nurse-UC16 - Register adverse reactions of a SNS User" style="stroke:#A80036;stroke-width:1.0;"/><!--MD5=[5f7a2ea26d9b2734e0c1da8ab898d84c]
link Nurse to UC17 - Request and deliver a vaccination certificate to a SNS User--><path d="M85.52,1733.5 C113.82,1733.5 172.85,1733.5 235.73,1733.5 " fill="none" id="Nurse-UC17 - Request and deliver a vaccination certificate to a SNS User" style="stroke:#A80036;stroke-width:1.0;"/><!--MD5=[818fa5700ec6f466d8252de515181650]
link Center Coordinator to UC18 - Get a list of all vaccines--><path d="M128.15,101.77 C146.75,91.53 167.7,81.39 188,74.5 C239.69,56.96 299.43,46.5 349.55,40.3 " fill="none" id="Center Coordinator-UC18 - Get a list of all vaccines" style="stroke:#A80036;stroke-width:1.0;"/><!--MD5=[67c6c8a0c1d9f9671444720f3f900502]
link System to UC19 - Trigger a notification to alert SNS User to leave recovery room--><path d="M90.09,1194.07 C126.1,1199.89 200.78,1211.95 273.5,1223.7 " fill="none" id="System-UC19 - Trigger a notification to alert SNS User to leave recovery room" style="stroke:#A80036;stroke-width:1.0;"/><!--MD5=[fbecbdb0445f8f0ef4edc218d266a4fd]
link Nurse to UC20 - Check which/how vaccine should be administrated--><path d="M85.55,1745.06 C108.28,1759.56 149.58,1784.22 188,1798.5 C224.99,1812.25 266.09,1823.25 304.83,1831.85 " fill="none" id="Nurse-UC20 - Check which/how vaccine should be administrated" style="stroke:#A80036;stroke-width:1.0;"/><!--MD5=[ce70fc104de6e196d67582681c35fe81]
link Nurse to UC21 - Register that a vaccine was administrated to a SNS User--><path d="M84.25,1775.14 C102.89,1817.33 137.55,1881.25 188,1916.5 C213.55,1934.35 243.45,1947.2 273.86,1956.44 " fill="none" id="Nurse-UC21 - Register that a vaccine was administrated to a SNS User" style="stroke:#A80036;stroke-width:1.0;"/><!--MD5=[98d27063de6131c560e6a4b78e530e4a]
link Nurse to UC22 - Register vaccine type/brand/lot of the vaccine administrated to a SNS User--><path d="M72.33,1775.16 C81.48,1841.58 108.94,1971.19 188,2042.5 C205.68,2058.45 226.49,2071.01 248.58,2080.88 " fill="none" id="Nurse-UC22 - Register vaccine type/brand/lot of the vaccine administrated to a SNS User" style="stroke:#A80036;stroke-width:1.0;"/><!--MD5=[f4ad70715d44c5f47e854960c20af74b]
link SNS User to UC23 - Request a vaccination certificate--><path d="M97.48,2644.89 C121.12,2658.85 155.59,2677.46 188,2688.5 C234.34,2704.28 286.97,2715.29 333.39,2722.81 " fill="none" id="SNS User-UC23 - Request a vaccination certificate" style="stroke:#A80036;stroke-width:1.0;"/><!--MD5=[bbbf3c5d83271d9e7e377ff405a2d014]
link Center Coordinator to UC24 - Monitor the vaccination process by statistics/charts/reports--><path d="M128.08,139.5 C158.21,139.5 196.76,139.5 236.82,139.5 " fill="none" id="Center Coordinator-UC24 - Monitor the vaccination process by statistics/charts/reports" style="stroke:#A80036;stroke-width:1.0;"/><!--MD5=[66b5efd6e085004c0cd6a9ae197f50f7]
link Center Coordinator to UC25 - Access other vaccination center data including law systems--><path d="M128.26,175.48 C146.95,185.58 167.91,195.87 188,203.5 C222.03,216.43 259.47,227.39 295.35,236.41 " fill="none" id="Center Coordinator-UC25 - Access other vaccination center data including law systems" style="stroke:#A80036;stroke-width:1.0;"/><!--MD5=[75c837e76a4e846414158520cfcb5a02]
@startuml
left to right direction

:SNS User: - - (UC01 - Schedule a vaccine)
:Receptionist: - - (UC02 - Schedule a vaccination)
:Receptionist: - - (UC03 - Register a SNS User)
:Receptionist: - - (UC04 - Register the arrival of a SNS user to take the vaccine)
:Nurse: - - (UC05 - Consult the users in the waiting room of a vaccination center)
:SNS User: - - (UC06 - Accept that the System can send SMS to the SNS User)
:System: - - (UC07 - Send a SMS to SNS User with schedule information)
:Nurse: - - (UC08 - Check SNS User info and health conditions)
:Administrator: - - (UC09 - Register a vaccination center to respond to a certain pandemic)
:Administrator: - - (UC10 - Register an Employee)
:Administrator: - - (UC11 - Get a list of Employees with a given function/role)
:Administrator: - - (UC12 - Specify a new vaccine type)
:Administrator: - - (UC13 - Specify a new vaccine and its administration process)
:Administrator: - - (UC14 - Load a set of users from a CSV file)
:Administrator: - - (UC15 - Register new SNS User)
:Nurse: - - (UC16 - Register adverse reactions of a SNS User)
:Nurse: - - (UC17 - Request and deliver a vaccination certificate to a SNS User)
:Center Coordinator: - - (UC18 - Get a list of all vaccines)
:System: - - (UC19 - Trigger a notification to alert SNS User to leave recovery room)
:Nurse: - - (UC20 - Check which/how vaccine should be administrated)
:Nurse: - - (UC21 - Register that a vaccine was administrated to a SNS User)
:Nurse: - - (UC22 - Register vaccine type/brand/lot of the vaccine administrated to a SNS User)
:SNS User: - - (UC23 - Request a vaccination certificate)
:Center Coordinator: - - (UC24 - Monitor the vaccination process by statistics/charts/reports)
:Center Coordinator: - - (UC25 - Access other vaccination center data including law systems)

@enduml

PlantUML version 1.2022.1(Tue Feb 01 18:19:58 GMT 2022)
(GPL source distribution)
Java Runtime: OpenJDK Runtime Environment
JVM: OpenJDK 64-Bit Server VM
Default Encoding: Cp1252
Language: pt
Country: PT
--></g></svg>